<?xml version="1.0" standalone="no"?>
<!DOCTYPE svg PUBLIC "-//W3C//DTD SVG 20010904//EN"
 "http://www.w3.org/TR/2001/REC-SVG-20010904/DTD/svg10.dtd">
<svg version="1.0" xmlns="http://www.w3.org/2000/svg"
 width="2000.000000pt" height="1824.000000pt" viewBox="0 0 2000.000000 1824.000000"
 preserveAspectRatio="xMidYMid meet">

<g transform="translate(0.000000,1824.000000) scale(0.100000,-0.100000)"
fill="#000000" stroke="none">
<path d="M7797 15713 c-46 -71 -329 -501 -629 -958 -299 -456 -649 -989 -776
-1183 l-232 -353 0 -139 0 -139 83 -25 c45 -13 133 -39 195 -57 l112 -33 0
-1292 0 -1292 24 -6 c13 -3 849 -294 1857 -646 1008 -352 1839 -640 1847 -640
9 0 647 206 1419 457 l1403 457 0 1557 0 1557 113 -34 c61 -19 176 -53 255
-76 l143 -42 115 115 114 114 -1115 1090 -1115 1090 -312 52 c-448 74 -3402
553 -3410 553 -4 0 -45 -57 -91 -127z m2606 -575 l327 -52 0 -368 0 -368 -207
-371 -208 -371 -3 628 -2 629 -293 49 c-160 27 -297 52 -304 55 -15 8 314 220
342 220 11 1 167 -22 348 -51z m1778 -914 l649 -637 0 -1738 0 -1738 -147 -46
c-211 -66 -524 -166 -540 -172 -11 -4 -13 175 -13 1016 0 562 -3 1021 -7 1021
-7 0 -629 -193 -803 -249 l-55 -18 -3 -1029 -2 -1029 -426 -140 c-234 -77
-432 -141 -440 -143 -12 -3 -14 206 -14 1425 l-1 1428 -109 -210 c-64 -125
-115 -210 -123 -210 -8 0 -528 153 -1156 340 l-1141 340 0 149 c0 114 3 147
13 143 6 -2 431 -129 942 -281 512 -153 988 -295 1060 -317 71 -21 132 -35
136 -31 5 6 789 1425 1330 2409 107 194 195 353 197 353 2 0 295 -286 653
-636z"/>
<path d="M10173 8262 c-10 -6 -13 -142 -15 -601 l-3 -592 -50 62 c-115 144
-279 245 -480 295 -101 25 -120 26 -260 21 -171 -6 -270 -27 -400 -85 -311
-139 -509 -410 -560 -767 -19 -129 -19 -199 0 -335 48 -344 249 -623 549 -766
254 -121 595 -125 849 -10 126 57 247 154 322 260 22 30 43 56 48 56 4 0 7
-86 7 -190 l0 -191 128 3 127 3 3 1414 c2 1125 0 1416 -10 1423 -17 10 -239
10 -255 0z m-565 -1073 c372 -90 589 -427 552 -856 -18 -202 -101 -378 -237
-504 -77 -70 -152 -114 -260 -152 -83 -30 -96 -31 -238 -32 -169 0 -215 10
-350 75 -142 69 -248 176 -320 325 -66 137 -80 203 -80 385 0 168 11 229 62
344 75 169 183 284 343 366 133 69 361 90 528 49z"/>
<path d="M2649 8093 c0 -5 0 -57 0 -118 l0 -110 488 -5 488 -5 0 -875 c0 -802
-2 -881 -18 -948 -49 -202 -133 -306 -292 -358 -104 -35 -275 -39 -370 -10
-133 41 -286 149 -359 255 -16 22 -34 41 -40 40 -6 0 -46 -41 -89 -91 l-78
-90 27 -36 c122 -166 305 -280 529 -328 91 -20 328 -20 410 -1 265 64 423 203
507 447 47 137 48 159 48 1228 l1 1007 -626 3 c-344 1 -625 -1 -626 -5z"/>
<path d="M5335 7434 c-371 -57 -675 -317 -786 -672 -48 -152 -62 -344 -38
-505 65 -432 378 -756 809 -838 84 -16 327 -16 410 0 468 90 784 451 815 932
37 556 -311 1005 -838 1083 -125 19 -250 19 -372 0z m420 -254 c211 -56 397
-238 469 -460 39 -116 49 -199 43 -339 -6 -142 -28 -231 -84 -347 -86 -178
-258 -316 -463 -371 -90 -23 -300 -23 -390 0 -311 83 -515 331 -549 667 -59
595 406 1001 974 850z"/>
<path d="M7937 7439 c-80 -12 -191 -46 -257 -79 -121 -61 -239 -174 -287 -275
l-18 -38 -5 194 -5 194 -127 3 c-125 3 -128 2 -133 -20 -3 -13 -4 -466 -3
-1008 l3 -985 138 -3 137 -3 0 560 c0 600 4 664 49 791 38 108 85 181 161 253
109 103 242 154 423 164 l107 6 0 128 0 129 -62 -1 c-35 -1 -89 -5 -121 -10z"/>
<path d="M11635 7426 c-204 -40 -363 -105 -492 -200 l-63 -46 61 -100 c59 -99
62 -101 83 -86 208 151 402 217 646 217 191 0 331 -45 431 -138 95 -89 136
-198 146 -389 l6 -122 -424 -5 c-390 -4 -432 -6 -524 -26 -137 -30 -234 -79
-316 -158 -107 -103 -159 -226 -159 -380 0 -168 44 -279 154 -388 127 -126
287 -189 512 -202 321 -18 583 85 737 287 l26 35 1 -152 0 -153 130 0 131 0
-4 713 c-3 696 -4 714 -25 792 -33 121 -94 236 -160 304 -148 150 -314 210
-607 217 -149 3 -185 1 -290 -20z m813 -1233 l2 -163 -34 -67 c-101 -198 -293
-323 -526 -341 -366 -29 -590 113 -590 373 0 212 132 328 405 354 50 5 236 8
415 7 l325 -1 3 -162z"/>
<path d="M14295 7436 c-233 -45 -404 -146 -542 -321 l-32 -40 0 183 -1 183
-127 -3 -128 -3 -3 -1007 -2 -1008 134 0 135 0 4 603 c3 582 4 605 25 686 39
149 113 265 227 356 121 97 252 136 455 136 155 0 218 -13 321 -67 90 -48 170
-133 213 -226 66 -142 66 -148 66 -852 l0 -636 141 0 141 0 -5 663 c-5 712 -6
730 -60 882 -46 130 -110 223 -214 308 -83 67 -165 109 -280 143 -74 22 -113
26 -243 30 -104 2 -178 -1 -225 -10z"/>
<path d="M16480 7444 c-208 -39 -278 -63 -382 -131 -184 -121 -269 -303 -241
-516 16 -116 50 -186 126 -261 118 -116 221 -154 631 -235 311 -62 394 -91
470 -165 62 -60 83 -120 71 -208 -25 -189 -203 -287 -520 -288 -257 0 -478 59
-669 180 -37 23 -68 41 -70 39 -2 -2 -29 -50 -60 -107 -66 -119 -71 -102 46
-173 346 -210 945 -239 1266 -62 86 47 182 140 220 211 76 142 83 314 19 464
-21 51 -100 133 -170 179 -85 55 -278 114 -507 154 -442 79 -585 166 -583 360
0 82 18 128 70 186 72 79 171 120 338 139 208 24 418 -13 602 -105 59 -30 108
-53 109 -52 7 8 114 207 114 211 0 11 -160 86 -237 112 -143 47 -255 65 -443
69 -96 2 -186 2 -200 -1z"/>
<path d="M4470 3560 l0 -530 50 0 50 0 0 213 c0 250 3 271 44 339 25 42 43 59
90 83 51 26 70 30 135 29 124 -1 195 -53 220 -164 6 -25 11 -147 11 -272 l0
-228 45 0 45 0 0 263 c0 289 -5 322 -59 388 -16 19 -53 48 -82 64 -51 28 -61
30 -164 30 -126 0 -166 -15 -242 -88 l-43 -41 0 222 0 222 -50 0 -50 0 0 -530z"/>
<path d="M3510 3985 l0 -45 180 0 180 0 0 -455 0 -455 50 0 50 0 0 455 0 455
175 0 175 0 0 45 0 45 -405 0 -405 0 0 -45z"/>
<path d="M6720 3530 l0 -500 50 0 50 0 0 230 0 230 315 0 315 0 0 -230 0 -230
50 0 50 0 0 500 0 500 -50 0 -50 0 0 -225 0 -225 -315 0 -315 0 0 225 0 225
-50 0 -50 0 0 -500z"/>
<path d="M11560 3530 l0 -500 258 0 c296 0 362 8 452 53 51 25 70 42 94 81 35
56 46 143 26 215 -15 59 -80 127 -140 148 l-47 17 40 27 c143 96 140 318 -6
403 -77 45 -156 56 -429 56 l-248 0 0 -500z m546 399 c63 -16 123 -72 135
-127 18 -83 -16 -152 -96 -195 -37 -20 -58 -22 -257 -25 l-218 -4 0 181 0 181
196 0 c111 0 214 -5 240 -11z m101 -473 c125 -69 124 -242 -2 -306 -48 -24
-55 -25 -292 -28 l-243 -4 0 187 0 187 243 -4 242 -3 52 -29z"/>
<path d="M5623 3766 c-96 -31 -187 -118 -224 -214 -29 -76 -30 -215 -3 -284
44 -108 121 -181 232 -220 47 -16 75 -19 157 -16 110 4 165 23 236 79 l39 30
-27 34 -26 33 -47 -34 c-151 -108 -381 -64 -453 87 -14 30 -28 69 -32 87 l-7
32 315 0 c262 0 316 2 320 14 11 27 -13 147 -38 197 -34 67 -95 125 -164 157
-45 22 -73 27 -146 29 -55 2 -106 -3 -132 -11z m240 -95 c55 -25 112 -86 132
-140 27 -76 45 -71 -255 -71 -166 0 -270 4 -270 10 0 5 9 33 20 63 18 47 49
86 103 127 55 41 191 47 270 11z"/>
<path d="M8031 3761 c-147 -55 -241 -193 -241 -355 0 -154 78 -279 215 -343
54 -25 70 -28 170 -28 101 0 115 2 169 29 76 37 140 101 174 174 24 51 27 69
27 167 0 105 -2 114 -33 177 -38 77 -91 128 -172 166 -76 36 -229 42 -309 13z
m256 -86 c63 -26 100 -62 132 -126 27 -54 31 -73 31 -145 0 -73 -4 -89 -33
-146 -88 -171 -328 -198 -457 -51 -137 156 -65 425 128 480 55 15 146 10 199
-12z"/>
<path d="M8770 3405 l0 -375 50 0 50 0 0 238 c0 217 2 241 21 282 27 60 54 88
114 116 99 47 234 25 287 -47 44 -59 48 -88 48 -345 l0 -244 49 0 50 0 3 243
3 242 30 55 c41 75 100 111 193 118 112 8 186 -30 223 -113 16 -35 19 -69 19
-292 l0 -253 51 0 50 0 -3 273 c-3 304 -8 325 -79 396 -58 57 -110 75 -219 76
-88 0 -101 -3 -162 -33 -41 -20 -81 -50 -103 -75 -33 -38 -37 -40 -46 -24 -49
86 -136 131 -254 132 -109 0 -175 -24 -237 -86 l-48 -48 0 69 0 70 -45 0 -45
0 0 -375z"/>
<path d="M10449 3757 c-100 -42 -152 -95 -200 -202 -32 -71 -32 -216 0 -297
31 -79 98 -150 179 -190 64 -32 71 -33 187 -33 102 0 127 3 167 22 51 23 118
73 118 86 0 5 -10 21 -22 36 l-23 27 -46 -33 c-25 -18 -74 -40 -109 -49 -176
-45 -344 53 -375 219 l-7 37 317 0 318 0 -5 74 c-8 129 -83 240 -198 295 -45
21 -72 26 -150 29 -81 2 -103 -1 -151 -21z m254 -81 c73 -30 135 -105 152
-183 l7 -33 -272 0 -272 0 7 33 c15 66 49 114 118 167 52 39 186 47 260 16z"/>
<path d="M12622 3513 c3 -257 4 -270 27 -321 52 -114 155 -168 310 -160 71 3
95 9 140 33 29 16 66 45 82 64 l29 36 0 -68 0 -67 50 0 50 0 0 375 0 375 -49
0 -49 0 -4 -237 -3 -238 -30 -60 c-37 -74 -87 -111 -170 -126 -125 -24 -235
29 -269 128 -13 38 -16 93 -16 290 l0 243 -51 0 -50 0 3 -267z"/>
<path d="M13460 3776 c0 -2 74 -169 165 -370 91 -201 165 -370 165 -376 0 -29
-68 -145 -99 -168 -46 -36 -129 -37 -184 -4 -43 25 -51 23 -72 -18 -14 -28
-14 -30 13 -48 41 -29 89 -42 154 -42 94 0 160 37 212 120 18 28 197 419 392
858 l24 52 -49 0 -49 0 -143 -322 c-140 -314 -143 -320 -156 -292 -7 16 -71
160 -142 319 l-129 290 -51 3 c-28 2 -51 1 -51 -2z"/>
<path d="M14528 3767 c-153 -57 -238 -172 -246 -333 -9 -173 67 -303 217 -372
45 -21 75 -27 153 -30 120 -5 204 19 270 78 l43 38 -29 31 -30 31 -25 -24
c-75 -71 -234 -94 -336 -48 -88 40 -147 114 -161 201 l-7 41 318 0 318 0 -5
68 c-9 128 -87 246 -197 299 -46 22 -72 27 -151 30 -63 2 -107 -1 -132 -10z
m241 -97 c75 -33 124 -95 145 -182 l6 -28 -271 0 -272 0 6 36 c26 158 219 245
386 174z"/>
<path d="M15220 3405 l0 -375 49 0 49 0 4 233 3 233 30 59 c39 77 88 112 178
127 l67 11 0 43 0 44 -40 0 c-69 0 -144 -36 -195 -92 l-45 -50 0 71 0 71 -50
0 -50 0 0 -375z"/>
<path d="M15875 3763 c-114 -41 -160 -104 -153 -210 3 -53 9 -68 33 -94 45
-47 90 -65 231 -95 150 -31 196 -51 214 -93 53 -128 -148 -202 -356 -131 -32
11 -68 27 -81 35 -30 20 -28 20 -54 -21 -25 -41 -25 -41 51 -76 74 -34 140
-48 236 -48 218 0 330 92 302 250 -9 49 -43 90 -95 115 -18 9 -94 29 -167 45
-74 16 -149 36 -166 45 -78 40 -70 144 15 188 33 18 57 21 130 21 86 -1 103
-5 206 -48 22 -10 67 63 47 76 -83 53 -297 75 -393 41z"/>
</g>
</svg>
